{
  "statusCode": 200,
  "message": "查询成功",
  "data": {
    "content": [
      {
        "createTime": "2019-06-07 18:42:32",
        "lastModifyTime": "2019-06-07 18:42:32",
        "createUID": 1032,
        "lastModifyUID": 1032,
        "id": 1992283,
        "username": "yjd",
        "fullname": "颜锦东",
        "sex": false,
        "cardId": "610502199801012356",
        "key": null,
        "policeNum": null,
        "ulevel": 5,
        "birthday": null,
        "hiredate": null,
        "remark": null,
        "workPhone": null,
        "mobilePhone": null,
        "email": null,
        "able": true,
        "del": false,
        "ocodeList": [],
        "gzcodeStr": null,
        "qmcodeStr": null,
        "departNames": "西安支队>一大队",
        "ableName": "启用",
        "operGroupName": "超级管理员",
        "ulevelName": "五级",
        "operGroupId": 1631,
        "dutyId": 1416,
        "departId": 1988710,
        "sexName": "女",
        "departName": "一大队",
        "dutyName": "大队长"
      },
      {
        "createTime": "2019-06-06 16:29:35",
        "lastModifyTime": "2019-06-06 16:29:35",
        "createUID": null,
        "lastModifyUID": 1032,
        "id": 1992247,
        "username": "kxx",
        "fullname": "kxx",
        "sex": true,
        "cardId": "610622200011256398",
        "key": null,
        "policeNum": null,
        "ulevel": 5,
        "birthday": null,
        "hiredate": null,
        "remark": null,
        "workPhone": null,
        "mobilePhone": null,
        "email": null,
        "able": true,
        "del": false,
        "ocodeList": [],
        "gzcodeStr": null,
        "qmcodeStr": null,
        "departNames": "西安支队>一大队",
        "ableName": "启用",
        "operGroupName": "普通民警权限",
        "ulevelName": "五级",
        "operGroupId": 1617,
        "dutyId": 1058,
        "departId": 1988710,
        "sexName": "男",
        "departName": "一大队",
        "dutyName": "民警"
      },
      {
        "createTime": "2019-05-28 13:55:56",
        "lastModifyTime": "2019-05-28 13:55:56",
        "createUID": null,
        "lastModifyUID": 1032,
        "id": 1991847,
        "username": "刘剑君",
        "fullname": "刘剑君",
        "sex": true,
        "cardId": "610811195805040013",
        "key": null,
        "policeNum": null,
        "ulevel": 5,
        "birthday": null,
        "hiredate": null,
        "remark": null,
        "workPhone": null,
        "mobilePhone": null,
        "email": null,
        "able": true,
        "del": false,
        "ocodeList": [],
        "gzcodeStr": null,
        "qmcodeStr": null,
        "departNames": "西安支队",
        "ableName": "启用",
        "operGroupName": "支队领导",
        "ulevelName": "五级",
        "operGroupId": 1292850,
        "dutyId": 1398,
        "departId": 1023,
        "sexName": "男",
        "departName": "西安支队",
        "dutyName": "副支队长"
      },
      {
        "createTime": "2019-05-28 13:58:02",
        "lastModifyTime": "2019-05-28 13:58:02",
        "createUID": null,
        "lastModifyUID": 1032,
        "id": 1991846,
        "username": "沈小伟",
        "fullname": "沈小伟",
        "sex": true,
        "cardId": "610859196805020011",
        "key": null,
        "policeNum": null,
        "ulevel": 5,
        "birthday": null,
        "hiredate": null,
        "remark": null,
        "workPhone": null,
        "mobilePhone": null,
        "email": null,
        "able": true,
        "del": false,
        "ocodeList": [],
        "gzcodeStr": null,
        "qmcodeStr": null,
        "departNames": "西安支队>二大队",
        "ableName": "启用",
        "operGroupName": "大队领导",
        "ulevelName": "五级",
        "operGroupId": 1292849,
        "dutyId": 1416,
        "departId": 1991840,
        "sexName": "男",
        "departName": "二大队",
        "dutyName": "大队长"
      },
      {
        "createTime": "2019-05-08 17:12:24",
        "lastModifyTime": "2019-05-08 17:12:24",
        "createUID": 1032,
        "lastModifyUID": 1032,
        "id": 1991845,
        "username": "刘楠",
        "fullname": "刘楠",
        "sex": true,
        "cardId": "610256198810020022",
        "key": null,
        "policeNum": null,
        "ulevel": 5,
        "birthday": null,
        "hiredate": null,
        "remark": null,
        "workPhone": null,
        "mobilePhone": null,
        "email": null,
        "able": true,
        "del": false,
        "ocodeList": [],
        "gzcodeStr": null,
        "qmcodeStr": null,
        "departNames": "西安支队>二大队",
        "ableName": "启用",
        "operGroupName": "普通民警权限",
        "ulevelName": "五级",
        "operGroupId": 1617,
        "dutyId": 1058,
        "departId": 1991840,
        "sexName": "男",
        "departName": "二大队",
        "dutyName": "民警"
      },
      {
        "createTime": "2019-05-06 15:03:16",
        "lastModifyTime": "2019-05-06 15:03:16",
        "createUID": 1032,
        "lastModifyUID": 1032,
        "id": 1991808,
        "username": "sunkai",
        "fullname": "孙凯",
        "sex": true,
        "cardId": "610521199201020015",
        "key": null,
        "policeNum": null,
        "ulevel": 5,
        "birthday": null,
        "hiredate": null,
        "remark": null,
        "workPhone": null,
        "mobilePhone": null,
        "email": null,
        "able": true,
        "del": false,
        "ocodeList": [],
        "gzcodeStr": null,
        "qmcodeStr": null,
        "departNames": "河北廊坊局>六大队",
        "ableName": "启用",
        "operGroupName": "普通民警权限",
        "ulevelName": "五级",
        "operGroupId": 1617,
        "dutyId": 1058,
        "departId": 1988715,
        "sexName": "男",
        "departName": "六大队",
        "dutyName": "民警"
      },
      {
        "createTime": "2019-05-01 10:44:02",
        "lastModifyTime": "2019-05-01 10:45:07",
        "createUID": 1032,
        "lastModifyUID": 1032,
        "id": 1991793,
        "username": "fhh",
        "fullname": "fh",
        "sex": true,
        "cardId": "612501199408088166",
        "key": null,
        "policeNum": null,
        "ulevel": 5,
        "birthday": null,
        "hiredate": null,
        "remark": null,
        "workPhone": null,
        "mobilePhone": null,
        "email": null,
        "able": true,
        "del": false,
        "ocodeList": [],
        "gzcodeStr": null,
        "qmcodeStr": null,
        "departNames": "西安支队>一大队",
        "ableName": "启用",
        "operGroupName": "xwz",
        "ulevelName": "五级",
        "operGroupId": 1988213,
        "dutyId": 1058,
        "departId": 1988710,
        "sexName": "男",
        "departName": "一大队",
        "dutyName": "民警"
      },
      {
        "createTime": "2019-04-29 17:19:45",
        "lastModifyTime": "2019-04-29 17:19:45",
        "createUID": 1032,
        "lastModifyUID": 1032,
        "id": 1991792,
        "username": "宋雨",
        "fullname": "宋雨",
        "sex": true,
        "cardId": "410523198802106033",
        "key": null,
        "policeNum": null,
        "ulevel": 5,
        "birthday": null,
        "hiredate": null,
        "remark": null,
        "workPhone": null,
        "mobilePhone": null,
        "email": null,
        "able": true,
        "del": false,
        "ocodeList": [],
        "gzcodeStr": null,
        "qmcodeStr": null,
        "departNames": "西安支队>一大队",
        "ableName": "启用",
        "operGroupName": "超级管理员",
        "ulevelName": "五级",
        "operGroupId": 1631,
        "dutyId": 1058,
        "departId": 1988710,
        "sexName": "男",
        "departName": "一大队",
        "dutyName": "民警"
      },
      {
        "createTime": "2019-04-26 15:15:25",
        "lastModifyTime": "2019-04-26 15:15:25",
        "createUID": null,
        "lastModifyUID": 1032,
        "id": 1988901,
        "username": "zlm",
        "fullname": "zlm",
        "sex": true,
        "cardId": "610527199110040022",
        "key": null,
        "policeNum": null,
        "ulevel": 5,
        "birthday": null,
        "hiredate": null,
        "remark": null,
        "workPhone": null,
        "mobilePhone": null,
        "email": null,
        "able": true,
        "del": false,
        "ocodeList": [],
        "gzcodeStr": null,
        "qmcodeStr": null,
        "departNames": "西安支队>一大队",
        "ableName": "启用",
        "operGroupName": "安全管理员",
        "ulevelName": "五级",
        "operGroupId": 1988769,
        "dutyId": 1058,
        "departId": 1988710,
        "sexName": "男",
        "departName": "一大队",
        "dutyName": "民警"
      },
      {
        "createTime": "2019-04-17 19:36:43",
        "lastModifyTime": "2019-04-17 19:36:43",
        "createUID": 1032,
        "lastModifyUID": 1032,
        "id": 1988900,
        "username": "测试111",
        "fullname": "测试",
        "sex": true,
        "cardId": "610524199505210022",
        "key": null,
        "policeNum": null,
        "ulevel": 5,
        "birthday": null,
        "hiredate": null,
        "remark": null,
        "workPhone": null,
        "mobilePhone": null,
        "email": null,
        "able": true,
        "del": false,
        "ocodeList": [],
        "gzcodeStr": null,
        "qmcodeStr": null,
        "departNames": "西安支队>七大队",
        "ableName": "启用",
        "operGroupName": "安全管理员",
        "ulevelName": "五级",
        "operGroupId": 1988769,
        "dutyId": 1056,
        "departId": 2701,
        "sexName": "男",
        "departName": "七大队",
        "dutyName": "测试员"
      }
    ],
    "last": false,
    "totalPages": 14,
    "totalElements": 132,
    "numberOfElements": 10,
    "first": true,
    "sort": [
      {
        "direction": "DESC",
        "property": "id",
        "ignoreCase": false,
        "nullHandling": "NATIVE",
        "descending": true,
        "ascending": false
      }
    ],
    "size": 10,
    "number": 0
  }
}
